INDV	N_SITES	MEAN_DEPTH
bb1	73599	14.1153
bb2	73599	7.76383
bb3	73599	9.22195
bb4	73599	14.5264
bb5	73599	14.0833
bb6	73599	6.89882
bb7	73599	7.25477
bb8	73599	10.5757
bb9	73599	8.34987
bb10	73599	8.81111
